{
  "project_info": {
    "project_number": "527350390485",
    "project_id": "picsarc-369",
    "storage_bucket": "picsarc-369.appspot.com"
  },
  "client": [
    {
      "client_info": {
        "mobilesdk_app_id": "1:527350390485:android:0fc966120d2df1c6ee4c5c",
        "android_client_info": {
          "package_name": "picsarc.picspro.picslab.photocollageeditor"
        }
      },
      "oauth_client": [
        {
          "client_id": "527350390485-6s4rkkqccq89tq93lmfvcq37sskmcf72.apps.googleusercontent.com",
          "client_type": 3
        }
      ],
      "api_key": [
        {
          "current_key": "AIzaSyAgQiZOAMpZsDV2IzEWGBT61xArMgub9xE"
        }
      ],
      "services": {
        "appinvite_service": {
          "other_platform_oauth_client": [
            {
              "client_id": "527350390485-6s4rkkqccq89tq93lmfvcq37sskmcf72.apps.googleusercontent.com",
              "client_type": 3
            }
          ]
        }
      }
    }
  ],
  "configuration_version": "1"
}